<?xml version="1.0" encoding="UTF-8" standalone="no"?>
<!DOCTYPE svg PUBLIC "-//W3C//DTD SVG 1.1//EN" "http://www.w3.org/Graphics/SVG/1.1/DTD/svg11.dtd">
<svg xmlns="http://www.w3.org/2000/svg" xmlns:xl="http://www.w3.org/1999/xlink" version="1.1" viewBox="0 0 576 1468" width="48pc" height="1468pt" xmlns:dc="http://purl.org/dc/elements/1.1/"><metadata> Produced by OmniGraffle 6.6.1 <dc:date>2017-01-04 15:47:57 +0000</dc:date></metadata><defs><font-face font-family="Helvetica" font-size="14" panose-1="2 11 4 3 2 2 2 2 2 4" units-per-em="1000" underline-position="-75" underline-thickness="50" slope="0" x-height="524" cap-height="718" ascent="770.00427" descent="-229.99573" font-weight="300"><font-face-src><font-face-name name="Helvetica-Light"/></font-face-src></font-face><marker orient="auto" overflow="visible" markerUnits="strokeWidth" id="FilledArrow_Marker" viewBox="-10 -5 11 10" markerWidth="11" markerHeight="10" color="black"><g><path d="M -8.08 0 L 0 3.03 L 0 -3.03 Z" fill="currentColor" stroke="currentColor" stroke-width="1"/></g></marker><marker orient="auto" overflow="visible" markerUnits="strokeWidth" id="FilledArrow_Marker_2" viewBox="-1 -4 10 8" markerWidth="10" markerHeight="8" color="black"><g><path d="M 8 0 L 0 -3 L 0 3 Z" fill="currentColor" stroke="currentColor" stroke-width="1"/></g></marker><font-face font-family="Helvetica" font-size="14" units-per-em="1000" underline-position="-75.683594" underline-thickness="49.316406" slope="0" x-height="522.94922" cap-height="717.28516" ascent="770.01953" descent="-229.98047" font-weight="500"><font-face-src><font-face-name name="Helvetica"/></font-face-src></font-face><font-face font-family="Helvetica" font-size="14" panose-1="2 11 4 3 2 2 2 2 2 4" units-per-em="1000" underline-position="-75" underline-thickness="50" slope="1071.4286" x-height="524" cap-height="718" ascent="770.00427" descent="-229.99573" font-style="italic" font-weight="300"><font-face-src><font-face-name name="Helvetica-LightOblique"/></font-face-src></font-face></defs><g stroke="none" stroke-opacity="1" stroke-dasharray="none" fill="none" fill-opacity="1"><title>Canvas 1</title><rect fill="white" width="576" height="1468"/><g><title>Master layer</title><text transform="translate(124.5 409.5) rotate(-90)" fill="black"><tspan font-family="Helvetica" font-size="14" font-weight="300" x="222.728" y="14" textLength="139.272">Project Dependencies</tspan></text></g><g><title>Layer 1</title><path d="M 202 312.98 L 202 314.98 L 202 411.5 L 202 508.02 L 202 520" marker-start="url(#FilledArrow_Marker)" stroke="black" stroke-linecap="round" stroke-linejoin="round" stroke-width="1"/><path d="M 382 405.98 L 382 407.98 L 382 422 L 382 436.02 L 382 448" marker-start="url(#FilledArrow_Marker)" stroke="black" stroke-linecap="round" stroke-linejoin="round" stroke-width="1"/><line x1="290" y1="705" x2="290" y2="687.9" marker-end="url(#FilledArrow_Marker_2)" stroke="black" stroke-linecap="round" stroke-linejoin="round" stroke-width="1"/><path d="M 382 312.98 L 382 314.98 L 382 319.5 L 382 324.02 L 382 336" marker-start="url(#FilledArrow_Marker)" stroke="black" stroke-linecap="round" stroke-linejoin="round" stroke-width="1"/><path d="M 320.66667 209.98 L 320.66667 211.98 L 320.66667 221.5 L 338 221.5 L 355.33333 221.5 L 355.33333 231.02 L 355.33333 243" marker-start="url(#FilledArrow_Marker)" stroke="black" stroke-linecap="round" stroke-linejoin="round" stroke-width="1"/><path d="M 294 117.98 L 294 119.98 L 294 124 L 294 128.02 L 294 140" marker-start="url(#FilledArrow_Marker)" stroke="black" stroke-linecap="round" stroke-linejoin="round" stroke-width="1"/><path d="M 267.33333 209.98 L 267.33333 211.98 L 267.33333 221.5 L 248 221.5 L 228.66667 221.5 L 228.66667 231.02 L 228.66667 243" marker-start="url(#FilledArrow_Marker)" stroke="black" stroke-linecap="round" stroke-linejoin="round" stroke-width="1"/><rect x="214" y="48" width="160" height="60" fill="#8cb0c0"/><rect x="214" y="48" width="160" height="60" stroke="black" stroke-linecap="butt" stroke-linejoin="miter" stroke-width="1"/><text transform="translate(219 61)" fill="black"><tspan font-family="Helvetica" font-size="14" font-weight="300" x="46.608" y="14" textLength="56.784">Common</tspan><tspan font-family="Helvetica" font-size="14" font-weight="500" x="48.15869" y="31" textLength="53.682617">common</tspan></text><rect x="214" y="140" width="160" height="60" fill="white"/><rect x="214" y="140" width="160" height="60" stroke="black" stroke-linecap="round" stroke-linejoin="round" stroke-width="1"/><text transform="translate(219 153)" fill="black"><tspan font-family="Helvetica" font-size="14" font-weight="300" x="1.465" y="14" textLength="147.07">Bytecode Infrastructure</tspan><tspan font-family="Helvetica" font-size="14" font-weight="500" x="69.551758" y="31" textLength="10.8964844">bi</tspan></text><rect x="122" y="243" width="160" height="60" fill="white"/><rect x="122" y="243" width="160" height="60" stroke="black" stroke-linecap="round" stroke-linejoin="round" stroke-width="1"/><text transform="translate(127 247.5)" fill="black"><tspan font-family="Helvetica" font-size="14" font-weight="300" x="45.04" y="14" textLength="63.812">Bytecode </tspan><tspan font-family="Helvetica" font-size="14" font-weight="300" x="27.533" y="31" textLength="94.934">Representation</tspan><tspan font-family="Helvetica" font-size="14" font-weight="500" x="68.77588" y="48" textLength="12.448242">br</tspan></text><rect x="302" y="243" width="160" height="60" fill="white"/><rect x="302" y="243" width="160" height="60" stroke="black" stroke-linecap="round" stroke-linejoin="round" stroke-width="1"/><text transform="translate(307 256)" fill="black"><tspan font-family="Helvetica" font-size="14" font-weight="300" x=".317" y="14" textLength="149.366">Bytecode Disassembler</tspan><tspan font-family="Helvetica" font-size="14" font-weight="500" x="67.213867" y="31" textLength="15.572266">da</tspan></text><rect x="302" y="336" width="160" height="60" fill="white"/><rect x="302" y="336" width="160" height="60" stroke="black" stroke-linecap="round" stroke-linejoin="round" stroke-width="1"/><text transform="translate(307 349)" fill="black"><tspan font-family="Helvetica" font-size="14" font-weight="300" x="19.756" y="14" textLength="110.488">Bytecode Creator</tspan><tspan font-family="Helvetica" font-size="14" font-weight="500" x="67.606934" y="31" textLength="14.786133">bc</tspan></text><rect x="302" y="448" width="160" height="60" fill="white"/><rect x="302" y="448" width="160" height="60" stroke="black" stroke-linecap="round" stroke-linejoin="round" stroke-width="1"/><text transform="translate(307 461)" fill="black"><tspan font-family="Helvetica" font-size="14" font-weight="300" x="9.648" y="14" textLength="130.704">Bytecode Assembler</tspan><tspan font-family="Helvetica" font-size="14" font-weight="500" x="67.213867" y="31" textLength="15.572266">ba</tspan></text><rect x="122" y="520" width="160" height="60" fill="white"/><rect x="122" y="520" width="160" height="60" stroke="black" stroke-linecap="round" stroke-linejoin="round" stroke-width="1"/><text transform="translate(127 524.5)" fill="black"><tspan font-family="Helvetica" font-size="14" font-weight="300" x="4.972" y="14" textLength="143.948">Abstract Interpretation </tspan><tspan font-family="Helvetica" font-size="14" font-weight="300" x="40.385" y="31" textLength="69.23">Framework</tspan><tspan font-family="Helvetica" font-size="14" font-weight="500" x="69.551758" y="48" textLength="10.8964844">ai</tspan></text><rect x="210" y="618" width="160" height="60" fill="white"/><rect x="210" y="618" width="160" height="60" stroke="black" stroke-linecap="round" stroke-linejoin="round" stroke-width="1"/><text transform="translate(215 631)" fill="black"><tspan font-family="Helvetica" font-size="14" font-weight="300" x="1.472" y="14" textLength="147.056">Dependency Extraction</tspan><tspan font-family="Helvetica" font-size="14" font-weight="500" x="67.213867" y="31" textLength="15.572266">de</tspan></text><rect x="210" y="705" width="160" height="60" fill="white"/><rect x="210" y="705" width="160" height="60" stroke="black" stroke-linecap="round" stroke-linejoin="round" stroke-width="1"/><text transform="translate(215 718)" fill="black"><tspan font-family="Helvetica" font-size="14" font-weight="300" x="4.195" y="14" textLength="141.61">Architecture Validation</tspan><tspan font-family="Helvetica" font-size="14" font-weight="500" x="67.606934" y="31" textLength="14.786133">av</tspan></text><path d="M 255.33333 589.98 L 255.33333 591.98 L 255.33333 599 L 272.66667 599 L 290 599 L 290 606.02 L 290 618" marker-start="url(#FilledArrow_Marker)" stroke="black" stroke-linecap="round" stroke-linejoin="round" stroke-width="1"/><path d="M 255.33333 312.98 L 255.33333 314.98 L 255.33333 422 L 382 422 L 382 436.02 L 382 448" marker-start="url(#FilledArrow_Marker)" stroke="black" stroke-linecap="round" stroke-linejoin="round" stroke-width="1"/><rect x="302" y="805" width="160" height="60" fill="#dedede"/><rect x="302" y="805" width="160" height="60" stroke="black" stroke-linecap="round" stroke-linejoin="round" stroke-width="1"/><text transform="translate(307 826.5)" fill="black"><tspan font-family="Helvetica" font-size="14" font-style="italic" font-weight="300" x="52.831" y="14" textLength="44.338">Demos</tspan></text><path d="M 382 785 L 362.66667 785 L 343.33333 785 L 343.33333 776.9 L 343.33333 774.9" marker-end="url(#FilledArrow_Marker_2)" stroke="black" stroke-linecap="round" stroke-linejoin="round" stroke-width="1"/><path d="M 382 805 L 382 793.1 L 382 656.5 L 382 519.9 L 382 517.9" marker-end="url(#FilledArrow_Marker_2)" stroke="black" stroke-linecap="round" stroke-linejoin="round" stroke-width="1"/><rect x="122" y="838" width="160" height="60" fill="#ffcdc4"/><rect x="122" y="838" width="160" height="60" stroke="black" stroke-linecap="round" stroke-linejoin="round" stroke-width="1"/><text transform="translate(127 851)" fill="black"><tspan font-family="Helvetica" font-size="14" font-weight="300" x="42.716" y="14" textLength="64.568">BugPicker</tspan><tspan font-family="Helvetica" font-size="14" font-weight="500" x="67.213867" y="31" textLength="15.572266">bp</tspan></text><path d="M 175.33333 589.98 L 175.33333 591.98 L 175.33333 709 L 175.33333 826.02 L 175.33333 838" marker-start="url(#FilledArrow_Marker)" stroke="black" stroke-linecap="round" stroke-linejoin="round" stroke-width="1"/></g></g></svg>
